{
  "__inputs": [
    {
      "name": "DS_INFLUXDB",
      "label": "InfluxDB",
      "description": "",
      "type": "datasource",
      "pluginId": "influxdb",
      "pluginName": "InfluxDB"
    }
  ],
  "__elements": {},
  "__requires": [
    {
      "type": "grafana",
      "id": "grafana",
      "name": "Grafana",
      "version": "9.2.10"
    },
    {
      "type": "datasource",
      "id": "influxdb",
      "name": "InfluxDB",
      "version": "1.0.0"
    },
    {
      "type": "panel",
      "id": "stat",
      "name": "Stat",
      "version": ""
    },
    {
      "type": "panel",
      "id": "table",
      "name": "Table",
      "version": ""
    },
    {
      "type": "panel",
      "id": "timeseries",
      "name": "Time series",
      "version": ""
    }
  ],
  "annotations": {
    "list": [
      {
        "builtIn": 1,
        "datasource": {
          "type": "datasource",
          "uid": "grafana"
        },
        "enable": true,
        "hide": true,
        "iconColor": "rgba(0, 211, 255, 1)",
        "name": "Annotations & Alerts",
        "target": {
          "limit": 100,
          "matchAny": false,
          "tags": [],
          "type": "dashboard"
        },
        "type": "dashboard"
      }
    ]
  },
  "description": "ColdJig",
  "editable": true,
  "fiscalYearStartMonth": 0,
  "graphTooltip": 0,
  "id": null,
  "links": [],
  "liveNow": false,
  "panels": [
    {
      "datasource": {
        "type": "influxdb",
        "uid": "zGxDpwBVz"
      },
      "gridPos": {
        "h": 1,
        "w": 24,
        "x": 0,
        "y": 0
      },
      "id": 38,
      "targets": [
        {
          "datasource": {
            "type": "influxdb",
            "uid": "zGxDpwBVz"
          },
          "refId": "A"
        }
      ],
      "title": "Row title",
      "type": "row"
    },
    {
      "datasource": {
        "type": "influxdb",
        "uid": "${DS_INFLUXDB}"
      },
      "description": "Plots of chuck and dew point ColdJig Temperatures",
      "fieldConfig": {
        "defaults": {
          "color": {
            "mode": "palette-classic"
          },
          "custom": {
            "axisCenteredZero": false,
            "axisColorMode": "text",
            "axisLabel": "",
            "axisPlacement": "auto",
            "barAlignment": 0,
            "drawStyle": "line",
            "fillOpacity": 10,
            "gradientMode": "none",
            "hideFrom": {
              "legend": false,
              "tooltip": false,
              "viz": false
            },
            "lineInterpolation": "linear",
            "lineWidth": 1,
            "pointSize": 5,
            "scaleDistribution": {
              "type": "linear"
            },
            "showPoints": "never",
            "spanNulls": false,
            "stacking": {
              "group": "A",
              "mode": "none"
            },
            "thresholdsStyle": {
              "mode": "off"
            }
          },
          "mappings": [],
          "thresholds": {
            "mode": "absolute",
            "steps": [
              {
                "color": "green",
                "value": null
              },
              {
                "color": "red",
                "value": 80
              }
            ]
          },
          "unit": "short"
        },
        "overrides": []
      },
      "gridPos": {
        "h": 9,
        "w": 10,
        "x": 0,
        "y": 1
      },
      "id": 2,
      "options": {
        "legend": {
          "calcs": [],
          "displayMode": "list",
          "placement": "right",
          "showLegend": true
        },
        "tooltip": {
          "mode": "multi",
          "sort": "none"
        }
      },
      "pluginVersion": "10.1.0",
      "targets": [
        {
          "alias": "SHT Left",
          "datasource": {
            "type": "influxdb",
            "uid": "${DS_INFLUXDB}"
          },
          "groupBy": [
            {
              "params": [
                "$__interval"
              ],
              "type": "time"
            },
            {
              "params": [
                "none"
              ],
              "type": "fill"
            }
          ],
          "measurement": "BNL",
          "orderByTime": "ASC",
          "policy": "autogen",
          "query": "from(bucket: \"${Bucket}\")\n  |> range(start: v.timeRangeStart, stop:v.timeRangeStop)\n  |> filter(fn: (r) => r[\"_measurement\"] == \"${Measurement}\")\n  |> filter(fn: (r) => r._field =~ /^RH\\.*/)\n  |> drop(columns: [\"status\"])\n  |> sort(columns: [\"_time\"])\n  |> aggregateWindow(every: $__interval_msms, fn: mean, createEmpty: false)",
          "queryType": "randomWalk",
          "refId": "A",
          "resultFormat": "time_series",
          "select": [
            [
              {
                "params": [
                  "RH.1"
                ],
                "type": "field"
              },
              {
                "params": [],
                "type": "mean"
              }
            ]
          ],
          "tags": []
        }
      ],
      "title": "SHT Humidity",
      "transparent": true,
      "type": "timeseries"
    },
    {
      "datasource": {
        "type": "influxdb",
        "uid": "${DS_INFLUXDB}"
      },
      "description": "Plots of  Cold-Box Temperatures",
      "fieldConfig": {
        "defaults": {
          "color": {
            "mode": "palette-classic"
          },
          "custom": {
            "axisCenteredZero": false,
            "axisColorMode": "text",
            "axisLabel": "",
            "axisPlacement": "auto",
            "barAlignment": 0,
            "drawStyle": "line",
            "fillOpacity": 0,
            "gradientMode": "none",
            "hideFrom": {
              "legend": false,
              "tooltip": false,
              "viz": false
            },
            "lineInterpolation": "linear",
            "lineWidth": 1,
            "pointSize": 4,
            "scaleDistribution": {
              "type": "linear"
            },
            "showPoints": "always",
            "spanNulls": false,
            "stacking": {
              "group": "A",
              "mode": "none"
            },
            "thresholdsStyle": {
              "mode": "off"
            }
          },
          "mappings": [],
          "thresholds": {
            "mode": "absolute",
            "steps": [
              {
                "color": "green",
                "value": null
              },
              {
                "color": "red",
                "value": 80
              }
            ]
          },
          "unit": "celsius"
        },
        "overrides": [
          {
            "matcher": {
              "id": "byName",
              "options": "thermometer.C0"
            },
            "properties": [
              {
                "id": "displayName",
                "value": "Chuck 1"
              }
            ]
          },
          {
            "matcher": {
              "id": "byName",
              "options": "thermometer.C1"
            },
            "properties": [
              {
                "id": "displayName",
                "value": "Chuck 2"
              }
            ]
          },
          {
            "matcher": {
              "id": "byName",
              "options": "thermometer.C2"
            },
            "properties": [
              {
                "id": "displayName",
                "value": "Chuck 3"
              }
            ]
          },
          {
            "matcher": {
              "id": "byName",
              "options": "thermometer.C3"
            },
            "properties": [
              {
                "id": "displayName",
                "value": "Chuck 4"
              }
            ]
          },
          {
            "matcher": {
              "id": "byName",
              "options": "chiller.temperature"
            },
            "properties": [
              {
                "id": "color",
                "value": {
                  "fixedColor": "blue",
                  "mode": "fixed"
                }
              },
              {
                "id": "displayName",
                "value": "Chiller"
              }
            ]
          },
          {
            "matcher": {
              "id": "byName",
              "options": "Chuck 1"
            },
            "properties": [
              {
                "id": "color",
                "value": {
                  "fixedColor": "red",
                  "mode": "fixed"
                }
              }
            ]
          },
          {
            "matcher": {
              "id": "byName",
              "options": "Chuck 2"
            },
            "properties": [
              {
                "id": "color",
                "value": {
                  "fixedColor": "orange",
                  "mode": "fixed"
                }
              }
            ]
          },
          {
            "matcher": {
              "id": "byName",
              "options": "Chuck 3"
            },
            "properties": [
              {
                "id": "color",
                "value": {
                  "fixedColor": "yellow",
                  "mode": "fixed"
                }
              }
            ]
          },
          {
            "matcher": {
              "id": "byName",
              "options": "Chuck 4"
            },
            "properties": [
              {
                "id": "color",
                "value": {
                  "fixedColor": "green",
                  "mode": "fixed"
                }
              }
            ]
          }
        ]
      },
      "gridPos": {
        "h": 9,
        "w": 10,
        "x": 10,
        "y": 1
      },
      "id": 13,
      "options": {
        "legend": {
          "calcs": [],
          "displayMode": "list",
          "placement": "right",
          "showLegend": true
        },
        "tooltip": {
          "mode": "multi",
          "sort": "none"
        }
      },
      "pluginVersion": "10.1.0",
      "targets": [
        {
          "alias": "Chuck 1",
          "datasource": {
            "type": "influxdb",
            "uid": "${DS_INFLUXDB}"
          },
          "groupBy": [
            {
              "params": [
                "$__interval"
              ],
              "type": "time"
            },
            {
              "params": [
                "none"
              ],
              "type": "fill"
            }
          ],
          "hide": false,
          "measurement": "BNL",
          "orderByTime": "ASC",
          "policy": "default",
          "query": "from(bucket: \"${Bucket}\")\n  |> range(start: v.timeRangeStart, stop:v.timeRangeStop)\n  |> filter(fn: (r) => r[\"_measurement\"] == \"${Measurement}\")\n  |> filter(fn: (r) => r._field =~ /^*thermometer\\.*/)\n  |> filter(fn: (r) => r._field != \"thermometer.AIR_left\")\n  |> filter(fn: (r) => r._field != \"thermometer.AIR_right\")\n  |> filter(fn: (r) => r._field != \"thermometer.sht1\")\n  |> filter(fn: (r) => r._field != \"thermometer.sht2\")\n  |> drop(columns: [\"status\"])\n  |> sort(columns: [\"_time\"])\n  |> aggregateWindow(every: $__interval_msms, fn: mean, createEmpty: false)\n",
          "rawQuery": false,
          "refId": "A",
          "resultFormat": "time_series",
          "select": [
            [
              {
                "params": [
                  "thermometer.C0"
                ],
                "type": "field"
              },
              {
                "params": [],
                "type": "mean"
              }
            ]
          ],
          "tags": []
        },
        {
          "datasource": {
            "type": "influxdb",
            "uid": "${DS_INFLUXDB}"
          },
          "hide": false,
          "query": "from(bucket: \"${Bucket}\")\n  |> range(start: v.timeRangeStart, stop:v.timeRangeStop)\n  |> filter(fn: (r) => r[\"_measurement\"] == \"${Measurement}\")\n  |> filter(fn: (r) => r._field =~ /^chiller.temperature\\.*/)\n  |> drop(columns: [\"status\"])\n  |> sort(columns: [\"_time\"])\n  |> aggregateWindow(every: $__interval_msms, fn: mean, createEmpty: false)",
          "refId": "B"
        }
      ],
      "title": "Coldbox Temperatures",
      "transparent": true,
      "type": "timeseries"
    },
    {
      "datasource": {
        "type": "influxdb",
        "uid": "${DS_INFLUXDB}"
      },
      "fieldConfig": {
        "defaults": {
          "color": {
            "mode": "thresholds"
          },
          "mappings": [
            {
              "options": {
                "<1.5": {
                  "color": "red",
                  "index": 0
                }
              },
              "type": "value"
            }
          ],
          "thresholds": {
            "mode": "absolute",
            "steps": [
              {
                "color": "green",
                "value": null
              }
            ]
          },
          "unit": "scfm"
        },
        "overrides": []
      },
      "gridPos": {
        "h": 4,
        "w": 4,
        "x": 20,
        "y": 1
      },
      "id": 19,
      "options": {
        "colorMode": "value",
        "graphMode": "area",
        "justifyMode": "auto",
        "orientation": "auto",
        "reduceOptions": {
          "calcs": [
            "lastNotNull"
          ],
          "fields": "",
          "values": false
        },
        "text": {},
        "textMode": "auto"
      },
      "pluginVersion": "9.2.10",
      "targets": [
        {
          "alias": "Air Flow",
          "datasource": {
            "type": "influxdb",
            "uid": "${DS_INFLUXDB}"
          },
          "groupBy": [
            {
              "params": [
                "$__interval"
              ],
              "type": "time"
            },
            {
              "params": [
                "none"
              ],
              "type": "fill"
            }
          ],
          "measurement": "BNL",
          "orderByTime": "ASC",
          "policy": "autogen",
          "query": "from(bucket: \"${Bucket}\")\n  |> range(start: v.timeRangeStart, stop:v.timeRangeStop)\n  |> filter(fn: (r) => r[\"_measurement\"] == \"${Measurement}\")\n  |> filter(fn: (r) => r._field =~ /^gas_flow/)\n  |> drop(columns: [\"status\"])\n  |> sort(columns: [\"_time\"])\n  |> aggregateWindow(every: $__interval_msms, fn: mean, createEmpty: false)",
          "queryType": "randomWalk",
          "refId": "A",
          "resultFormat": "time_series",
          "select": [
            [
              {
                "params": [
                  "gas_flow"
                ],
                "type": "field"
              },
              {
                "params": [],
                "type": "mean"
              }
            ]
          ],
          "tags": []
        }
      ],
      "title": "Dry Air",
      "type": "stat"
    },
    {
      "datasource": {
        "type": "influxdb",
        "uid": "${DS_INFLUXDB}"
      },
      "fieldConfig": {
        "defaults": {
          "mappings": [],
          "thresholds": {
            "mode": "absolute",
            "steps": [
              {
                "color": "green",
                "value": null
              },
              {
                "color": "red",
                "value": 80
              }
            ]
          }
        },
        "overrides": []
      },
      "gridPos": {
        "h": 3,
        "w": 2,
        "x": 20,
        "y": 5
      },
      "id": 41,
      "options": {
        "colorMode": "value",
        "graphMode": "area",
        "justifyMode": "auto",
        "orientation": "auto",
        "reduceOptions": {
          "calcs": [
            "lastNotNull"
          ],
          "fields": "",
          "values": false
        },
        "textMode": "auto"
      },
      "pluginVersion": "9.2.10",
      "targets": [
        {
          "datasource": {
            "type": "influxdb",
            "uid": "${DS_INFLUXDB}"
          },
          "groupBy": [
            {
              "params": [
                "$__interval"
              ],
              "type": "time"
            },
            {
              "params": [
                "null"
              ],
              "type": "fill"
            }
          ],
          "measurement": "BNL",
          "orderByTime": "ASC",
          "policy": "default",
          "query": "from(bucket: \"${Bucket}\")\n  |> range(start: v.timeRangeStart, stop:v.timeRangeStop)\n  |> filter(fn: (r) => r[\"_measurement\"] == \"${Measurement}\")\n  |> filter(fn: (r) => r._field =~ /^CYCLE/)\n  |> drop(columns: [\"status\"])\n  |> sort(columns: [\"_time\"])\n  |> aggregateWindow(every: $__interval_msms, fn: mean, createEmpty: false)",
          "refId": "A",
          "resultFormat": "time_series",
          "select": [
            [
              {
                "params": [
                  "CYCLE"
                ],
                "type": "field"
              },
              {
                "params": [],
                "type": "last"
              }
            ]
          ],
          "tags": []
        }
      ],
      "title": "Cycle Number",
      "type": "stat"
    },
    {
      "datasource": {
        "type": "influxdb",
        "uid": "${DS_INFLUXDB}"
      },
      "fieldConfig": {
        "defaults": {
          "mappings": [],
          "thresholds": {
            "mode": "absolute",
            "steps": [
              {
                "color": "green",
                "value": null
              },
              {
                "color": "red",
                "value": 80
              }
            ]
          }
        },
        "overrides": []
      },
      "gridPos": {
        "h": 3,
        "w": 2,
        "x": 22,
        "y": 5
      },
      "id": 40,
      "options": {
        "colorMode": "value",
        "graphMode": "none",
        "justifyMode": "auto",
        "orientation": "auto",
        "reduceOptions": {
          "calcs": [
            "lastNotNull"
          ],
          "fields": "",
          "values": false
        },
        "textMode": "auto"
      },
      "pluginVersion": "9.2.10",
      "targets": [
        {
          "datasource": {
            "type": "influxdb",
            "uid": "${DS_INFLUXDB}"
          },
          "groupBy": [
            {
              "params": [
                "$__interval"
              ],
              "type": "time"
            },
            {
              "params": [
                "null"
              ],
              "type": "fill"
            }
          ],
          "measurement": "BNL",
          "orderByTime": "ASC",
          "policy": "default",
          "query": "from(bucket: \"${Bucket}\")\n  |> range(start: v.timeRangeStart, stop:v.timeRangeStop)\n  |> filter(fn: (r) => r[\"_measurement\"] == \"${Measurement}\")\n  |> filter(fn: (r) => r._field =~ /^RUN_NUMBER/)\n  |> drop(columns: [\"status\"])\n  |> sort(columns: [\"_time\"])\n  |> aggregateWindow(every: $__interval_msms, fn: mean, createEmpty: false)",
          "refId": "A",
          "resultFormat": "time_series",
          "select": [
            [
              {
                "params": [
                  "RUN_NUMBER"
                ],
                "type": "field"
              },
              {
                "params": [],
                "type": "last"
              }
            ]
          ],
          "tags": []
        }
      ],
      "title": "RUN Number",
      "type": "stat"
    },
    {
      "datasource": {
        "type": "influxdb",
        "uid": "${DS_INFLUXDB}"
      },
      "description": "SPS chiller set temperature",
      "fieldConfig": {
        "defaults": {
          "color": {
            "mode": "thresholds"
          },
          "mappings": [],
          "thresholds": {
            "mode": "absolute",
            "steps": [
              {
                "color": "green",
                "value": null
              },
              {
                "color": "red",
                "value": 80
              }
            ]
          },
          "unit": "celsius"
        },
        "overrides": []
      },
      "gridPos": {
        "h": 4,
        "w": 2,
        "x": 20,
        "y": 8
      },
      "id": 24,
      "options": {
        "colorMode": "value",
        "graphMode": "none",
        "justifyMode": "auto",
        "orientation": "auto",
        "reduceOptions": {
          "calcs": [
            "lastNotNull"
          ],
          "fields": "",
          "values": false
        },
        "text": {},
        "textMode": "auto"
      },
      "pluginVersion": "9.2.10",
      "targets": [
        {
          "alias": "Set T",
          "datasource": {
            "type": "influxdb",
            "uid": "${DS_INFLUXDB}"
          },
          "groupBy": [
            {
              "params": [
                "$__interval"
              ],
              "type": "time"
            },
            {
              "params": [
                "none"
              ],
              "type": "fill"
            }
          ],
          "measurement": "BNL",
          "orderByTime": "ASC",
          "policy": "autogen",
          "query": "from(bucket: \"${Bucket}\")\n  |> range(start: v.timeRangeStart, stop:v.timeRangeStop)\n  |> filter(fn: (r) => r[\"_measurement\"] == \"${Measurement}\")\n  |> filter(fn: (r) => r._field =~ /^chiller.set_temp\\.*/)\n  |> drop(columns: [\"status\"])\n  |> sort(columns: [\"_time\"])\n  |> aggregateWindow(every: $__interval_msms, fn: mean, createEmpty: false)",
          "queryType": "randomWalk",
          "refId": "A",
          "resultFormat": "time_series",
          "select": [
            [
              {
                "params": [
                  "chiller.set_temperature"
                ],
                "type": "field"
              },
              {
                "params": [],
                "type": "last"
              }
            ]
          ],
          "tags": []
        }
      ],
      "title": "Chiller Set Temp",
      "type": "stat"
    },
    {
      "datasource": {
        "type": "influxdb",
        "uid": "${DS_INFLUXDB}"
      },
      "description": "SPS chiller coolant temperature",
      "fieldConfig": {
        "defaults": {
          "color": {
            "mode": "thresholds"
          },
          "mappings": [],
          "thresholds": {
            "mode": "absolute",
            "steps": [
              {
                "color": "green",
                "value": null
              },
              {
                "color": "red",
                "value": 80
              }
            ]
          },
          "unit": "celsius"
        },
        "overrides": []
      },
      "gridPos": {
        "h": 4,
        "w": 2,
        "x": 22,
        "y": 8
      },
      "id": 23,
      "options": {
        "colorMode": "value",
        "graphMode": "none",
        "justifyMode": "auto",
        "orientation": "auto",
        "reduceOptions": {
          "calcs": [
            "lastNotNull"
          ],
          "fields": "",
          "values": false
        },
        "text": {},
        "textMode": "auto"
      },
      "pluginVersion": "9.2.10",
      "targets": [
        {
          "alias": "Meas T",
          "datasource": {
            "type": "influxdb",
            "uid": "${DS_INFLUXDB}"
          },
          "groupBy": [
            {
              "params": [
                "$__interval"
              ],
              "type": "time"
            },
            {
              "params": [
                "null"
              ],
              "type": "fill"
            }
          ],
          "measurement": "BNL",
          "orderByTime": "ASC",
          "policy": "autogen",
          "query": "from(bucket: \"${Bucket}\")\n  |> range(start: v.timeRangeStart, stop:v.timeRangeStop)\n  |> filter(fn: (r) => r[\"_measurement\"] == \"${Measurement}\")\n  |> filter(fn: (r) => r._field =~ /^chiller.temperature\\.*/)\n  |> drop(columns: [\"status\"])\n  |> sort(columns: [\"_time\"])\n  |> aggregateWindow(every: $__interval_msms, fn: mean, createEmpty: false)",
          "queryType": "randomWalk",
          "refId": "A",
          "resultFormat": "time_series",
          "select": [
            [
              {
                "params": [
                  "chiller.temperature"
                ],
                "type": "field"
              },
              {
                "params": [],
                "type": "last"
              }
            ]
          ],
          "tags": []
        }
      ],
      "title": "Chiller Meas T",
      "type": "stat"
    },
    {
      "datasource": {
        "type": "influxdb",
        "uid": "${DS_INFLUXDB}"
      },
      "description": "Plots of  Cold-Box Temperatures",
      "fieldConfig": {
        "defaults": {
          "color": {
            "mode": "thresholds"
          },
          "mappings": [
            {
              "options": {
                "OFF": {
                  "color": "red",
                  "index": 1,
                  "text": "CHILLER OFF"
                },
                "ON": {
                  "color": "green",
                  "index": 0,
                  "text": "CHILLER ON"
                }
              },
              "type": "value"
            }
          ],
          "thresholds": {
            "mode": "absolute",
            "steps": [
              {
                "color": "green",
                "value": null
              },
              {
                "color": "red",
                "value": 80
              }
            ]
          }
        },
        "overrides": []
      },
      "gridPos": {
        "h": 5,
        "w": 3,
        "x": 0,
        "y": 10
      },
      "id": 64,
      "options": {
        "colorMode": "value",
        "graphMode": "area",
        "justifyMode": "auto",
        "orientation": "auto",
        "reduceOptions": {
          "calcs": [
            "lastNotNull"
          ],
          "fields": "/^chiller\\.read_state IDLE$/",
          "values": false
        },
        "text": {},
        "textMode": "auto"
      },
      "pluginVersion": "9.2.10",
      "targets": [
        {
          "alias": "Chuck 1",
          "datasource": {
            "type": "influxdb",
            "uid": "${DS_INFLUXDB}"
          },
          "groupBy": [
            {
              "params": [
                "$__interval"
              ],
              "type": "time"
            },
            {
              "params": [
                "none"
              ],
              "type": "fill"
            }
          ],
          "hide": false,
          "measurement": "BNL",
          "orderByTime": "ASC",
          "policy": "default",
          "query": "from(bucket: \"${Bucket}\")\n  |> range(start: v.timeRangeStart, stop:v.timeRangeStop)\n  |> filter(fn: (r) => r[\"_measurement\"] == \"${Measurement}\")\n  |> filter(fn: (r) => r[\"_field\"] == \"chiller.read_state\")\n  |> aggregateWindow(every: $__interval, fn: last, createEmpty: false)\n  |> yield(name: \"last\")",
          "rawQuery": false,
          "refId": "A",
          "resultFormat": "time_series",
          "select": [
            [
              {
                "params": [
                  "thermometer.C0"
                ],
                "type": "field"
              },
              {
                "params": [],
                "type": "mean"
              }
            ]
          ],
          "tags": []
        }
      ],
      "title": "Chiller",
      "transparent": true,
      "type": "stat"
    },
    {
      "datasource": {
        "type": "influxdb",
        "uid": "${DS_INFLUXDB}"
      },
      "description": "",
      "fieldConfig": {
        "defaults": {
          "color": {
            "mode": "thresholds"
          },
          "mappings": [
            {
              "options": {
                "0": {
                  "color": "red",
                  "index": 1,
                  "text": "REFRIGERATION OFF"
                },
                "1": {
                  "color": "green",
                  "index": 2,
                  "text": "REFRIGERATION ON"
                },
                "2": {
                  "color": "green",
                  "index": 0,
                  "text": "REFRIGERATION ON"
                }
              },
              "type": "value"
            }
          ],
          "thresholds": {
            "mode": "absolute",
            "steps": [
              {
                "color": "green",
                "value": null
              },
              {
                "color": "red",
                "value": 80
              }
            ]
          }
        },
        "overrides": []
      },
      "gridPos": {
        "h": 5,
        "w": 3,
        "x": 3,
        "y": 10
      },
      "id": 65,
      "options": {
        "colorMode": "value",
        "graphMode": "none",
        "justifyMode": "auto",
        "orientation": "auto",
        "reduceOptions": {
          "calcs": [
            "lastNotNull"
          ],
          "fields": "/^chiller\\.refr_state$/",
          "values": false
        },
        "textMode": "auto"
      },
      "pluginVersion": "9.2.10",
      "targets": [
        {
          "alias": "Chuck 1",
          "datasource": {
            "type": "influxdb",
            "uid": "${DS_INFLUXDB}"
          },
          "groupBy": [
            {
              "params": [
                "$__interval"
              ],
              "type": "time"
            },
            {
              "params": [
                "none"
              ],
              "type": "fill"
            }
          ],
          "hide": false,
          "measurement": "BNL",
          "orderByTime": "ASC",
          "policy": "default",
          "query": "from(bucket: \"${Bucket}\")\n  |> range(start: v.timeRangeStart, stop:v.timeRangeStop)\n  |> filter(fn: (r) => r[\"_measurement\"] == \"${Measurement}\")\n  |> filter(fn: (r) => r[\"_field\"] == \"chiller.refr_state\")\n  |> drop(columns: [\"status\"])\n  |> sort(columns: [\"_time\"])\n  |> aggregateWindow(every: $__interval, fn: last, createEmpty: false)\n  |> yield(name: \"last\")\n\n",
          "rawQuery": false,
          "refId": "A",
          "resultFormat": "time_series",
          "select": [
            [
              {
                "params": [
                  "thermometer.C0"
                ],
                "type": "field"
              },
              {
                "params": [],
                "type": "mean"
              }
            ]
          ],
          "tags": []
        }
      ],
      "title": "Chiller refrigeration",
      "transparent": true,
      "type": "stat"
    },
    {
      "datasource": {
        "type": "influxdb",
        "uid": "${DS_INFLUXDB}"
      },
      "description": "",
      "fieldConfig": {
        "defaults": {
          "color": {
            "mode": "thresholds"
          },
          "mappings": [
            {
              "options": {
                "false": {
                  "color": "red",
                  "index": 1,
                  "text": "CHILLER NOT OK"
                },
                "true": {
                  "color": "green",
                  "index": 0,
                  "text": "CHILLER OK"
                }
              },
              "type": "value"
            }
          ],
          "thresholds": {
            "mode": "absolute",
            "steps": [
              {
                "color": "green",
                "value": null
              },
              {
                "color": "red",
                "value": 80
              }
            ]
          }
        },
        "overrides": []
      },
      "gridPos": {
        "h": 5,
        "w": 3,
        "x": 6,
        "y": 10
      },
      "id": 66,
      "options": {
        "colorMode": "value",
        "graphMode": "none",
        "justifyMode": "auto",
        "orientation": "auto",
        "reduceOptions": {
          "calcs": [
            "lastNotNull"
          ],
          "fields": "/^interlock\\.chiller$/",
          "values": false
        },
        "textMode": "auto"
      },
      "pluginVersion": "9.2.10",
      "targets": [
        {
          "alias": "Chuck 1",
          "datasource": {
            "type": "influxdb",
            "uid": "${DS_INFLUXDB}"
          },
          "groupBy": [
            {
              "params": [
                "$__interval"
              ],
              "type": "time"
            },
            {
              "params": [
                "none"
              ],
              "type": "fill"
            }
          ],
          "hide": false,
          "measurement": "BNL",
          "orderByTime": "ASC",
          "policy": "default",
          "query": "from(bucket: \"${Bucket}\")\n  |> range(start: v.timeRangeStart, stop:v.timeRangeStop)\n  |> filter(fn: (r) => r[\"_measurement\"] == \"${Measurement}\")\n  |> filter(fn: (r) => r[\"_field\"] == \"interlock.chiller\")\n  |> drop(columns: [\"status\"])\n  |> sort(columns: [\"_time\"])\n  |> aggregateWindow(every: $__interval, fn: last, createEmpty: false)\n  |> yield(name: \"last\")\n\n",
          "rawQuery": false,
          "refId": "A",
          "resultFormat": "time_series",
          "select": [
            [
              {
                "params": [
                  "thermometer.C0"
                ],
                "type": "field"
              },
              {
                "params": [],
                "type": "mean"
              }
            ]
          ],
          "tags": []
        }
      ],
      "title": "Chiller interlock",
      "transparent": true,
      "type": "stat"
    },
    {
      "datasource": {
        "type": "influxdb",
        "uid": "${DS_INFLUXDB}"
      },
      "description": "",
      "fieldConfig": {
        "defaults": {
          "color": {
            "mode": "thresholds"
          },
          "mappings": [
            {
              "options": {
                "match": "null",
                "result": {
                  "color": "blue",
                  "index": 0,
                  "text": "AMACs not connected"
                }
              },
              "type": "special"
            }
          ],
          "thresholds": {
            "mode": "absolute",
            "steps": [
              {
                "color": "green",
                "value": null
              },
              {
                "color": "red",
                "value": 80
              }
            ]
          },
          "unit": "celsius"
        },
        "overrides": []
      },
      "gridPos": {
        "h": 4,
        "w": 8,
        "x": 12,
        "y": 10
      },
      "id": 61,
      "options": {
        "colorMode": "value",
        "graphMode": "none",
        "justifyMode": "center",
        "orientation": "auto",
        "reduceOptions": {
          "calcs": [
            "last"
          ],
          "fields": "",
          "values": false
        },
        "textMode": "value_and_name"
      },
      "pluginVersion": "9.2.10",
      "targets": [
        {
          "alias": "Chuck 1 Temp",
          "datasource": {
            "type": "influxdb",
            "uid": "${DS_INFLUXDB}"
          },
          "groupBy": [
            {
              "params": [
                "5s"
              ],
              "type": "time"
            },
            {
              "params": [
                "none"
              ],
              "type": "fill"
            }
          ],
          "measurement": "BNL",
          "orderByTime": "ASC",
          "policy": "autogen",
          "query": "from(bucket: \"${Bucket}\")\n  |> range(start: v.timeRangeStart, stop:v.timeRangeStop)\n  |> filter(fn: (r) => r[\"_measurement\"] == \"${Measurement}\")\n  |> filter(fn: (r) => r._field =~ /^*thermometer\\.*/)\n  |> filter(fn: (r) => r._field != \"thermometer.AIR_left\")\n  |> filter(fn: (r) => r._field != \"thermometer.AIR_right\")\n  |> filter(fn: (r) => r._field != \"thermometer.sht2\")\n  |> filter(fn: (r) => r._field != \"thermometer.sht1\")\n  |> drop(columns: [\"status\"])\n  |> sort(columns: [\"_time\"])\n  |> aggregateWindow(every: $__interval_msms, fn: mean, createEmpty: false)\n",
          "refId": "A",
          "resultFormat": "time_series",
          "select": [
            [
              {
                "params": [
                  "thermometer.C0"
                ],
                "type": "field"
              },
              {
                "params": [],
                "type": "mean"
              }
            ]
          ],
          "tags": []
        }
      ],
      "title": "Chuck temperatures",
      "type": "stat"
    },
    {
      "datasource": {
        "type": "influxdb",
        "uid": "${DS_INFLUXDB}"
      },
      "fieldConfig": {
        "defaults": {
          "mappings": [
            {
              "options": {
                "match": "null",
                "result": {
                  "color": "blue",
                  "index": 0,
                  "text": "Not thermal cycling"
                }
              },
              "type": "special"
            }
          ],
          "thresholds": {
            "mode": "absolute",
            "steps": [
              {
                "color": "green",
                "value": null
              },
              {
                "color": "red",
                "value": 80
              }
            ]
          }
        },
        "overrides": []
      },
      "gridPos": {
        "h": 3,
        "w": 4,
        "x": 20,
        "y": 12
      },
      "id": 43,
      "options": {
        "colorMode": "value",
        "graphMode": "none",
        "justifyMode": "auto",
        "orientation": "auto",
        "reduceOptions": {
          "calcs": [
            "last"
          ],
          "fields": "/^command$/",
          "values": false
        },
        "textMode": "value"
      },
      "pluginVersion": "9.2.10",
      "targets": [
        {
          "alias": "command",
          "datasource": {
            "type": "influxdb",
            "uid": "${DS_INFLUXDB}"
          },
          "groupBy": [
            {
              "params": [
                "$__interval"
              ],
              "type": "time"
            },
            {
              "params": [
                "none"
              ],
              "type": "fill"
            }
          ],
          "measurement": "COMM",
          "orderByTime": "ASC",
          "policy": "default",
          "query": "from(bucket: \"${Bucket}\")\n  |> range(start: v.timeRangeStart, stop:v.timeRangeStop)\n  |> filter(fn: (r) => r[\"_measurement\"] == \"COMM\")\n  |> filter(fn: (r) => r._field =~ /^COMMAND*/)\n  |> drop(columns: [\"status\"])\n  |> sort(columns: [\"_time\"])\n  |> aggregateWindow(every: $__interval_msms, fn: last, createEmpty: false)",
          "refId": "A",
          "resultFormat": "time_series",
          "select": [
            [
              {
                "params": [
                  "COMMAND"
                ],
                "type": "field"
              },
              {
                "params": [],
                "type": "last"
              }
            ]
          ],
          "tags": []
        }
      ],
      "title": "Thermal Cycling Status",
      "type": "stat"
    },
    {
      "datasource": {
        "type": "influxdb",
        "uid": "${DS_INFLUXDB}"
      },
      "description": "",
      "fieldConfig": {
        "defaults": {
          "color": {
            "mode": "thresholds"
          },
          "mappings": [
            {
              "options": {
                "match": "null",
                "result": {
                  "color": "blue",
                  "index": 0,
                  "text": "AMACs not connected"
                }
              },
              "type": "special"
            }
          ],
          "thresholds": {
            "mode": "absolute",
            "steps": [
              {
                "color": "green",
                "value": null
              }
            ]
          },
          "unit": "celsius"
        },
        "overrides": []
      },
      "gridPos": {
        "h": 4,
        "w": 8,
        "x": 12,
        "y": 14
      },
      "id": 48,
      "options": {
        "colorMode": "value",
        "graphMode": "area",
        "justifyMode": "auto",
        "orientation": "auto",
        "reduceOptions": {
          "calcs": [
            "last"
          ],
          "fields": "",
          "values": false
        },
        "textMode": "auto"
      },
      "pluginVersion": "9.2.10",
      "targets": [
        {
          "alias": "Hybrid 1",
          "datasource": {
            "type": "influxdb",
            "uid": "${DS_INFLUXDB}"
          },
          "groupBy": [
            {
              "params": [
                "5s"
              ],
              "type": "time"
            },
            {
              "params": [
                "none"
              ],
              "type": "fill"
            }
          ],
          "measurement": "DCS_AMAC",
          "orderByTime": "ASC",
          "policy": "default",
          "query": "from(bucket: \"coldjig\")\n  |> range(start: v.timeRangeStart, stop: v.timeRangeStop)\n  |> filter(fn: (r) => r[\"_measurement\"] == \"DCS_AMAC\")\n  |> filter(fn: (r) => r[\"_field\"] == \"NTCx\")\n  |> drop(columns: [\"instance\"])\n  |> aggregateWindow(every: v.windowPeriod, fn: last, createEmpty: false)\n  |> yield(name: \"last\")",
          "refId": "A",
          "resultFormat": "time_series",
          "select": [
            [
              {
                "params": [
                  "NTCx"
                ],
                "type": "field"
              },
              {
                "params": [],
                "type": "mean"
              }
            ]
          ],
          "tags": [
            {
              "key": "Mapping",
              "operator": "=",
              "value": "Port00.Addr00"
            }
          ]
        }
      ],
      "title": "Hybrid Temperatures from AMAC",
      "type": "stat"
    },
    {
      "datasource": {
        "type": "influxdb",
        "uid": "${DS_INFLUXDB}"
      },
      "fieldConfig": {
        "defaults": {
          "color": {
            "mode": "thresholds"
          },
          "mappings": [
            {
              "options": {
                "false": {
                  "color": "red",
                  "index": 0,
                  "text": "INTERLOCK OFF!"
                },
                "true": {
                  "color": "green",
                  "index": 1,
                  "text": "INTERLOCK ON"
                }
              },
              "type": "value"
            }
          ],
          "thresholds": {
            "mode": "absolute",
            "steps": [
              {
                "color": "red",
                "value": null
              },
              {
                "color": "green",
                "value": 6
              }
            ]
          },
          "unit": "scfm"
        },
        "overrides": []
      },
      "gridPos": {
        "h": 4,
        "w": 2,
        "x": 20,
        "y": 15
      },
      "id": 56,
      "options": {
        "colorMode": "value",
        "graphMode": "area",
        "justifyMode": "auto",
        "orientation": "auto",
        "reduceOptions": {
          "calcs": [
            "lastNotNull"
          ],
          "fields": "/^Thermal interlock$/",
          "values": false
        },
        "text": {},
        "textMode": "auto"
      },
      "pluginVersion": "9.2.10",
      "targets": [
        {
          "alias": "Thermal interlock",
          "datasource": {
            "type": "influxdb",
            "uid": "${DS_INFLUXDB}"
          },
          "groupBy": [
            {
              "params": [
                "$__interval"
              ],
              "type": "time"
            },
            {
              "params": [
                "none"
              ],
              "type": "fill"
            }
          ],
          "measurement": "BNL",
          "orderByTime": "ASC",
          "policy": "autogen",
          "queryType": "randomWalk",
          "refId": "A",
          "resultFormat": "time_series",
          "select": [
            [
              {
                "params": [
                  "interlock.temperature"
                ],
                "type": "field"
              },
              {
                "params": [],
                "type": "first"
              }
            ]
          ],
          "tags": []
        }
      ],
      "title": "Thermal interlock",
      "type": "stat"
    },
    {
      "datasource": {
        "type": "influxdb",
        "uid": "${DS_INFLUXDB}"
      },
      "fieldConfig": {
        "defaults": {
          "color": {
            "mode": "thresholds"
          },
          "mappings": [
            {
              "options": {
                "false": {
                  "color": "red",
                  "index": 1,
                  "text": "INTERLOCK OFF!"
                },
                "true": {
                  "color": "green",
                  "index": 0,
                  "text": "INTERLOCK ON"
                }
              },
              "type": "value"
            }
          ],
          "thresholds": {
            "mode": "absolute",
            "steps": [
              {
                "color": "red",
                "value": null
              },
              {
                "color": "green",
                "value": 6
              }
            ]
          },
          "unit": "scfm"
        },
        "overrides": []
      },
      "gridPos": {
        "h": 4,
        "w": 2,
        "x": 22,
        "y": 15
      },
      "id": 57,
      "options": {
        "colorMode": "value",
        "graphMode": "area",
        "justifyMode": "auto",
        "orientation": "auto",
        "reduceOptions": {
          "calcs": [
            "lastNotNull"
          ],
          "fields": "/^Dew point Interlock$/",
          "values": false
        },
        "text": {},
        "textMode": "auto"
      },
      "pluginVersion": "9.2.10",
      "targets": [
        {
          "alias": "Dew point Interlock",
          "datasource": {
            "type": "influxdb",
            "uid": "${DS_INFLUXDB}"
          },
          "groupBy": [
            {
              "params": [
                "$__interval"
              ],
              "type": "time"
            },
            {
              "params": [
                "none"
              ],
              "type": "fill"
            }
          ],
          "measurement": "BNL",
          "orderByTime": "ASC",
          "policy": "autogen",
          "queryType": "randomWalk",
          "refId": "A",
          "resultFormat": "time_series",
          "select": [
            [
              {
                "params": [
                  "interlock.dp"
                ],
                "type": "field"
              },
              {
                "params": [],
                "type": "first"
              }
            ]
          ],
          "tags": []
        }
      ],
      "title": "Dew point interlock",
      "type": "stat"
    },
    {
      "datasource": {
        "type": "influxdb",
        "uid": "${DS_INFLUXDB}"
      },
      "description": "",
      "fieldConfig": {
        "defaults": {
          "color": {
            "mode": "thresholds"
          },
          "mappings": [
            {
              "options": {
                "match": "null",
                "result": {
                  "color": "blue",
                  "index": 0,
                  "text": "AMACs not connected"
                }
              },
              "type": "special"
            }
          ],
          "thresholds": {
            "mode": "absolute",
            "steps": [
              {
                "color": "green",
                "value": null
              },
              {
                "color": "red",
                "value": 80
              }
            ]
          },
          "unit": "celsius"
        },
        "overrides": []
      },
      "gridPos": {
        "h": 4,
        "w": 8,
        "x": 12,
        "y": 18
      },
      "id": 50,
      "options": {
        "colorMode": "value",
        "graphMode": "area",
        "justifyMode": "auto",
        "orientation": "auto",
        "reduceOptions": {
          "calcs": [
            "last"
          ],
          "fields": "",
          "values": false
        },
        "text": {},
        "textMode": "value_and_name"
      },
      "pluginVersion": "9.2.10",
      "targets": [
        {
          "alias": "Powerboard 1",
          "datasource": {
            "type": "influxdb",
            "uid": "${DS_INFLUXDB}"
          },
          "groupBy": [
            {
              "params": [
                "5s"
              ],
              "type": "time"
            },
            {
              "params": [
                "none"
              ],
              "type": "fill"
            }
          ],
          "measurement": "DCS_AMAC",
          "orderByTime": "ASC",
          "policy": "default",
          "query": "from(bucket: \"coldjig\")\n  |> range(start: v.timeRangeStart, stop: v.timeRangeStop)\n  |> filter(fn: (r) => r[\"_measurement\"] == \"DCS_AMAC\")\n  |> filter(fn: (r) => r[\"_field\"] == \"NTCpb\")\n  |> drop(columns: [\"instance\"])\n  |> aggregateWindow(every: v.windowPeriod, fn: last, createEmpty: false)\n  |> yield(name: \"last\")",
          "refId": "A",
          "resultFormat": "time_series",
          "select": [
            [
              {
                "params": [
                  "NTCpb"
                ],
                "type": "field"
              },
              {
                "params": [],
                "type": "mean"
              }
            ]
          ],
          "tags": [
            {
              "key": "Mapping",
              "operator": "=",
              "value": "Port00.Addr00"
            }
          ]
        }
      ],
      "title": "Powerboard Temperatures from AMAC",
      "type": "stat"
    },
    {
      "datasource": {
        "type": "influxdb",
        "uid": "${DS_INFLUXDB}"
      },
      "fieldConfig": {
        "defaults": {
          "color": {
            "mode": "thresholds"
          },
          "mappings": [
            {
              "options": {
                "OFF": {
                  "color": "red",
                  "index": 1,
                  "text": "Chiller OFF"
                },
                "ON": {
                  "color": "green",
                  "index": 0,
                  "text": "Chiller ON"
                }
              },
              "type": "value"
            }
          ],
          "thresholds": {
            "mode": "absolute",
            "steps": [
              {
                "color": "green",
                "value": null
              },
              {
                "color": "red",
                "value": ""
              }
            ]
          },
          "unit": "scfm"
        },
        "overrides": []
      },
      "gridPos": {
        "h": 3,
        "w": 4,
        "x": 20,
        "y": 19
      },
      "id": 58,
      "options": {
        "colorMode": "value",
        "graphMode": "area",
        "justifyMode": "auto",
        "orientation": "auto",
        "reduceOptions": {
          "calcs": [
            "lastNotNull"
          ],
          "fields": "/^Chiller read state$/",
          "values": false
        },
        "text": {},
        "textMode": "auto"
      },
      "pluginVersion": "9.2.10",
      "targets": [
        {
          "alias": "Chiller read state",
          "datasource": {
            "type": "influxdb",
            "uid": "${DS_INFLUXDB}"
          },
          "groupBy": [
            {
              "params": [
                "$__interval"
              ],
              "type": "time"
            },
            {
              "params": [
                "none"
              ],
              "type": "fill"
            }
          ],
          "measurement": "BNL",
          "orderByTime": "ASC",
          "policy": "autogen",
          "queryType": "randomWalk",
          "refId": "A",
          "resultFormat": "time_series",
          "select": [
            [
              {
                "params": [
                  "chiller.read_state"
                ],
                "type": "field"
              },
              {
                "params": [],
                "type": "first"
              }
            ]
          ],
          "tags": []
        }
      ],
      "title": "Chiller read state",
      "type": "stat"
    },
    {
      "datasource": {
        "type": "influxdb",
        "uid": "${DS_INFLUXDB}"
      },
      "description": "",
      "fieldConfig": {
        "defaults": {
          "color": {
            "mode": "thresholds"
          },
          "decimals": 2,
          "mappings": [
            {
              "options": {
                "match": "null",
                "result": {
                  "color": "blue",
                  "index": 0,
                  "text": "No PTAT available"
                }
              },
              "type": "special"
            }
          ],
          "thresholds": {
            "mode": "absolute",
            "steps": [
              {
                "color": "green",
                "value": null
              }
            ]
          },
          "unit": "celsius"
        },
        "overrides": []
      },
      "gridPos": {
        "h": 4,
        "w": 8,
        "x": 12,
        "y": 22
      },
      "id": 62,
      "options": {
        "colorMode": "value",
        "graphMode": "area",
        "justifyMode": "auto",
        "orientation": "auto",
        "reduceOptions": {
          "calcs": [
            "last"
          ],
          "fields": "",
          "values": false
        },
        "text": {},
        "textMode": "value_and_name"
      },
      "pluginVersion": "9.2.10",
      "targets": [
        {
          "alias": "PTAT 1",
          "datasource": {
            "type": "influxdb",
            "uid": "${DS_INFLUXDB}"
          },
          "groupBy": [
            {
              "params": [
                "5s"
              ],
              "type": "time"
            },
            {
              "params": [
                "none"
              ],
              "type": "fill"
            }
          ],
          "measurement": "DCS_AMAC",
          "orderByTime": "ASC",
          "policy": "default",
          "query": "from(bucket: \"coldjig\")\n  |> range(start: v.timeRangeStart, stop: v.timeRangeStop)\n  |> filter(fn: (r) => r[\"_measurement\"] == \"DCS_AMAC\")\n  |> filter(fn: (r) => r[\"_field\"] == \"PTAT\")\n  |> aggregateWindow(every: v.windowPeriod, fn: last, createEmpty: false)\n  |> yield(name: \"last\")",
          "refId": "A",
          "resultFormat": "time_series",
          "select": [
            [
              {
                "params": [
                  "PTAT"
                ],
                "type": "field"
              },
              {
                "params": [],
                "type": "mean"
              }
            ]
          ],
          "tags": [
            {
              "key": "Mapping",
              "operator": "=",
              "value": "Port00.Addr00"
            }
          ]
        }
      ],
      "title": "PTAT from AMAC",
      "type": "stat"
    },
    {
      "datasource": {
        "type": "influxdb",
        "uid": "${DS_INFLUXDB}"
      },
      "fieldConfig": {
        "defaults": {
          "color": {
            "mode": "thresholds"
          },
          "mappings": [],
          "thresholds": {
            "mode": "absolute",
            "steps": [
              {
                "color": "green",
                "value": null
              }
            ]
          },
          "unit": "celsius"
        },
        "overrides": []
      },
      "gridPos": {
        "h": 3,
        "w": 4,
        "x": 20,
        "y": 22
      },
      "id": 25,
      "options": {
        "colorMode": "value",
        "graphMode": "area",
        "justifyMode": "auto",
        "orientation": "auto",
        "reduceOptions": {
          "calcs": [
            "lastNotNull"
          ],
          "fields": "",
          "values": false
        },
        "text": {},
        "textMode": "auto"
      },
      "pluginVersion": "9.2.10",
      "targets": [
        {
          "alias": "DP1",
          "datasource": {
            "type": "influxdb",
            "uid": "${DS_INFLUXDB}"
          },
          "groupBy": [
            {
              "params": [
                "$__interval"
              ],
              "type": "time"
            },
            {
              "params": [
                "null"
              ],
              "type": "fill"
            }
          ],
          "measurement": "BNL",
          "orderByTime": "ASC",
          "policy": "autogen",
          "query": "from(bucket: \"${Bucket}\")\n  |> range(start: v.timeRangeStart, stop:v.timeRangeStop)\n  |> filter(fn: (r) => r[\"_measurement\"] == \"${Measurement}\")\n  |> filter(fn: (r) => r._field =~ /^*DP\\.*/)\n  |> drop(columns: [\"status\"])\n  |> sort(columns: [\"_time\"])\n  |> aggregateWindow(every: $__interval_msms, fn: mean, createEmpty: false)\n",
          "queryType": "randomWalk",
          "rawQuery": false,
          "refId": "A",
          "resultFormat": "time_series",
          "select": [
            [
              {
                "params": [
                  "DP.1"
                ],
                "type": "field"
              },
              {
                "params": [],
                "type": "last"
              }
            ]
          ],
          "tags": []
        },
        {
          "alias": "DP2",
          "datasource": {
            "type": "influxdb",
            "uid": "${DS_INFLUXDB}"
          },
          "groupBy": [
            {
              "params": [
                "$__interval"
              ],
              "type": "time"
            },
            {
              "params": [
                "null"
              ],
              "type": "fill"
            }
          ],
          "hide": false,
          "measurement": "BNL",
          "orderByTime": "ASC",
          "policy": "autogen",
          "queryType": "randomWalk",
          "refId": "B",
          "resultFormat": "time_series",
          "select": [
            [
              {
                "params": [
                  "DP.2"
                ],
                "type": "field"
              },
              {
                "params": [],
                "type": "last"
              }
            ]
          ],
          "tags": []
        },
        {
          "alias": "DP3",
          "datasource": {
            "type": "influxdb",
            "uid": "${DS_INFLUXDB}"
          },
          "groupBy": [
            {
              "params": [
                "$__interval"
              ],
              "type": "time"
            },
            {
              "params": [
                "null"
              ],
              "type": "fill"
            }
          ],
          "measurement": "BNL",
          "orderByTime": "ASC",
          "policy": "default",
          "refId": "C",
          "resultFormat": "time_series",
          "select": [
            [
              {
                "params": [
                  "DP.3"
                ],
                "type": "field"
              },
              {
                "params": [],
                "type": "mean"
              }
            ]
          ],
          "tags": []
        }
      ],
      "title": "Dew Point",
      "type": "stat"
    },
    {
      "datasource": {
        "type": "influxdb",
        "uid": "${DS_INFLUXDB}"
      },
      "fieldConfig": {
        "defaults": {
          "color": {
            "mode": "thresholds"
          },
          "custom": {
            "align": "auto",
            "displayMode": "auto",
            "inspect": false
          },
          "mappings": [],
          "thresholds": {
            "mode": "absolute",
            "steps": [
              {
                "color": "green",
                "value": null
              },
              {
                "color": "red",
                "value": 80
              }
            ]
          }
        },
        "overrides": [
          {
            "matcher": {
              "id": "byName",
              "options": "_time"
            },
            "properties": [
              {
                "id": "custom.width",
                "value": 240
              }
            ]
          }
        ]
      },
      "gridPos": {
        "h": 28,
        "w": 18,
        "x": 0,
        "y": 26
      },
      "id": 63,
      "options": {
        "cellHeight": "sm",
        "footer": {
          "countRows": false,
          "fields": "",
          "reducer": [
            "sum"
          ],
          "show": false
        },
        "showHeader": true,
        "sortBy": [
          {
            "desc": true,
            "displayName": "_time"
          }
        ]
      },
      "pluginVersion": "9.2.10",
      "targets": [
        {
          "datasource": {
            "type": "influxdb",
            "uid": "${DS_INFLUXDB}"
          },
          "query": "from(bucket: \"${Bucket}\")\n  |> range(start: v.timeRangeStart, stop:v.timeRangeStop)\n  |> filter(fn: (r) => r._measurement == \"COMM\")\n  |> group(columns: [\"SETUP\", \"SENDER\", \"RECEIVER\"])\n  |> filter(fn: (r) => r._field == \"COMMAND\" or r._field == \"DATA\" or r._field == \"ERROR\")\n  |> pivot(rowKey: [\"_time\"], columnKey: [\"_field\"], valueColumn: \"_value\")\n  |> group(columns: [\"_value\"])\n  |> drop(columns: [\"_start\",\"_stop\"])",
          "refId": "A"
        }
      ],
      "title": "TC Communication",
      "transformations": [
        {
          "id": "formatTime",
          "options": {
            "outputFormat": "YYYY-MM-DD HH:mm:ss:SSS",
            "timeField": "_time",
            "useTimezone": true
          }
        }
      ],
      "type": "table"
    }
  ],
  "refresh": "5s",
  "revision": 1,
  "schemaVersion": 37,
  "style": "dark",
  "tags": [],
  "templating": {
    "list": [
      {
        "current": {
          "selected": false,
          "text": "InfluxDB",
          "value": "InfluxDB"
        },
        "description": "Select your datasource",
        "hide": 0,
        "includeAll": false,
        "multi": false,
        "name": "Datasource",
        "options": [],
        "query": "influxdb",
        "queryValue": "",
        "refresh": 1,
        "regex": "",
        "skipUrlSync": false,
        "type": "datasource"
      },
      {
        "current": {},
        "datasource": {
          "type": "influxdb",
          "uid": "${DS_INFLUXDB}"
        },
        "definition": "buckets()",
        "description": "database name(v1.8) or Bucket(v2.x)",
        "hide": 0,
        "includeAll": false,
        "label": "Database/Bucket",
        "multi": false,
        "name": "Bucket",
        "options": [],
        "query": "buckets()",
        "refresh": 1,
        "regex": "",
        "skipUrlSync": false,
        "sort": 0,
        "type": "query"
      },
      {
        "current": {},
        "datasource": {
          "type": "influxdb",
          "uid": "${DS_INFLUXDB}"
        },
        "definition": "import \"influxdata/influxdb/schema\"\n\nschema.measurements(bucket: \"${Bucket}\")",
        "description": "Enter Influx measurement name ",
        "hide": 0,
        "includeAll": false,
        "multi": false,
        "name": "Measurement",
        "options": [],
        "query": "import \"influxdata/influxdb/schema\"\n\nschema.measurements(bucket: \"${Bucket}\")",
        "refresh": 1,
        "regex": "",
        "skipUrlSync": false,
        "sort": 0,
        "type": "query"
      }
    ]
  },
  "time": {
    "from": "now-3h",
    "to": "now"
  },
  "timepicker": {
    "hidden": false
  },
  "timezone": "browser",
  "title": "ColdJig",
  "uid": "ZKemEcPGaaa",
  "version": 76,
  "weekStart": ""
}