time [s],Cold-junction [b'Celc'],time [s],Channel 1 [b'Celc'],time [s],Channel 2 [b'Celc'],time [s],Channel 3 [b'Celc'],time [s],Channel 4 [b'Celc'],time [s],Channel 5 [b'Celc'],time [s],Channel 6 [b'Celc'],time [s],Channel 7 [b'Celc'],time [s],Channel 8 [b'Celc'],
0.00,0024.33,0.07,0023.90,0.14,0034.67,0.20,0023.93,0.27,0023.91,0.34,0024.50,0.41,0023.89,0.48,0023.43,0.54,0031.84,
0.90,0024.33,0.97,0023.89,1.04,0034.78,1.10,0024.05,1.17,0024.11,1.24,0024.50,1.31,0024.14,1.38,0023.69,1.44,0031.93,
1.80,0024.33,1.87,0024.06,1.94,0034.82,2.00,0023.96,2.07,0024.02,2.14,0024.51,2.21,0024.07,2.28,0023.58,2.34,0031.97,
2.70,0024.33,2.77,0023.92,2.84,0034.95,2.90,0024.16,2.97,0024.20,3.04,0024.53,3.11,0024.28,3.18,0023.80,3.24,0032.03,
3.60,0024.33,3.67,0024.18,3.74,0035.06,3.80,0024.18,3.87,0024.27,3.94,0024.52,4.01,0024.17,4.08,0023.69,4.14,0032.07,
4.50,0024.33,4.57,0024.08,4.64,0035.17,4.70,0024.15,4.77,0024.16,4.84,0024.53,4.91,0024.29,4.98,0023.86,5.04,0032.12,
5.40,0024.33,5.47,0024.13,5.54,0035.37,5.60,0024.14,5.67,0024.17,5.74,0024.54,5.81,0024.09,5.88,0023.70,5.94,0032.18,
6.30,0024.33,6.37,0024.13,6.44,0035.55,6.50,0024.15,6.57,0024.16,6.64,0024.56,6.71,0024.25,6.78,0023.86,6.84,0032.23,
7.20,0024.33,7.27,0024.34,7.34,0035.72,7.40,0024.39,7.47,0024.35,7.54,0024.56,7.61,0024.31,7.68,0023.85,7.74,0032.30,
8.10,0024.33,8.17,0024.21,8.24,0035.94,8.30,0024.33,8.37,0024.41,8.44,0024.57,8.51,0024.48,8.58,0024.00,8.64,0032.40,
9.00,0024.33,9.07,0024.41,9.14,0036.12,9.20,0024.41,9.27,0024.40,9.34,0024.55,9.41,0024.52,9.48,0024.01,9.54,0032.47,
9.90,0024.33,9.97,0024.30,10.04,0036.24,10.10,0024.30,10.17,0024.30,10.24,0024.55,10.31,0024.42,10.38,0023.96,10.44,0032.55,
10.80,0024.33,10.87,0024.31,10.94,0036.28,11.00,0024.31,11.07,0024.39,11.14,0024.50,11.21,0024.37,11.28,0023.95,11.34,0032.63,
11.70,0024.33,11.77,0024.30,11.84,0036.28,11.90,0024.42,11.97,0024.49,12.04,0024.53,12.11,0024.49,12.18,0024.03,12.24,0032.77,
12.60,0024.33,12.67,0024.40,12.74,0036.32,12.80,0024.33,12.87,0024.37,12.94,0024.53,13.01,0024.48,13.08,0024.08,13.14,0032.93,
13.50,0024.34,13.57,0024.41,13.64,0036.45,13.70,0024.39,13.77,0024.44,13.84,0024.52,13.91,0024.44,13.98,0023.89,14.04,0033.04,
14.40,0024.34,14.47,0024.13,14.54,0036.57,14.60,0024.29,14.67,0024.32,14.74,0024.48,14.81,0024.29,14.88,0023.75,14.94,0033.13,
15.30,0024.34,15.37,0024.14,15.44,0036.71,15.50,0024.13,15.57,0024.18,15.64,0024.47,15.71,0024.07,15.78,0023.69,15.84,0033.20,
16.20,0024.34,16.27,0023.92,16.34,0036.82,16.40,0023.98,16.47,0024.15,16.54,0024.47,16.61,0024.11,16.68,0023.62,16.74,0033.27,
17.10,0024.34,17.17,0023.88,17.24,0036.94,17.30,0023.99,17.37,0024.12,17.44,0024.45,17.51,0024.15,17.58,0023.74,17.64,0033.32,
18.00,0024.34,18.07,0023.86,18.14,0037.10,18.20,0023.81,18.27,0023.88,18.34,0024.40,18.41,0023.83,18.48,0023.41,18.54,0033.36,
18.90,0024.34,18.97,0023.75,19.04,0037.05,19.10,0023.83,19.17,0023.93,19.24,0024.36,19.31,0023.97,19.38,0023.53,19.44,0033.42,
19.80,0024.34,19.87,0023.96,19.94,0036.95,20.00,0024.04,20.07,0024.15,20.14,0024.37,20.21,0024.15,20.28,0023.65,20.34,0033.48,
20.70,0024.34,20.77,0024.17,20.84,0036.87,20.90,0024.27,20.97,0024.26,21.04,0024.41,21.11,0024.24,21.18,0023.81,21.24,0033.54,
21.60,0024.34,21.67,0024.28,21.74,0036.90,21.80,0024.22,21.87,0024.28,21.94,0024.45,22.01,0024.31,22.08,0023.83,22.14,0033.61,
22.50,0024.34,22.57,0024.12,22.64,0036.93,22.70,0024.03,22.77,0024.20,22.84,0024.44,22.91,0024.27,22.98,0023.75,23.04,0033.65,
23.40,0024.34,23.47,0023.95,23.54,0036.99,23.60,0023.95,23.67,0023.86,23.74,0024.46,23.81,0023.89,23.88,0023.39,23.94,0033.70,
24.30,0024.34,24.37,0023.89,24.44,0037.08,24.50,0024.01,24.57,0024.15,24.64,0024.46,24.71,0024.17,24.78,0023.73,24.84,0033.76,
25.20,0024.34,25.27,0024.16,25.34,0037.17,25.40,0024.28,25.47,0024.29,25.54,0024.47,25.61,0024.27,25.68,0023.84,25.74,0033.82,
26.10,0024.34,26.17,0024.27,26.24,0037.20,26.30,0024.30,26.37,0024.40,26.44,0024.48,26.51,0024.42,26.58,0023.96,26.64,0033.87,
27.00,0024.34,27.07,0024.25,27.14,0037.20,27.20,0024.29,27.27,0024.34,27.34,0024.48,27.41,0024.34,27.48,0023.91,27.54,0033.97,
27.90,0024.34,27.97,0024.23,28.04,0037.27,28.10,0024.31,28.17,0024.23,28.24,0024.47,28.31,0024.29,28.38,0023.86,28.44,0034.14,
28.80,0024.34,28.87,0024.16,28.94,0037.39,29.00,0024.28,29.07,0024.43,29.14,0024.48,29.21,0024.46,29.28,0023.96,29.34,0034.19,
29.70,0024.35,29.77,0024.12,29.84,0037.42,29.90,0024.25,29.97,0024.30,30.04,0024.42,30.11,0024.18,30.18,0023.78,30.24,0034.22,
30.60,0024.35,30.67,0024.14,30.74,0037.55,30.80,0024.15,30.87,0024.20,30.94,0024.39,31.01,0024.16,31.08,0023.67,31.14,0034.26,
31.50,0024.35,31.57,0023.86,31.64,0037.62,31.70,0024.11,31.77,0024.14,31.84,0024.34,31.91,0024.13,31.98,0023.67,32.04,0034.30,
32.40,0024.35,32.47,0024.12,32.54,0037.59,32.60,0024.03,32.67,0024.01,32.74,0024.31,32.81,0024.03,32.88,0023.73,32.94,0034.35,
33.30,0024.35,33.37,0024.04,33.44,0037.57,33.50,0024.10,33.57,0024.12,33.64,0024.27,33.71,0023.99,33.78,0023.56,33.84,0034.40,
34.20,0024.35,34.27,0024.04,34.34,0037.70,34.40,0024.05,34.47,0024.12,34.54,0024.26,34.61,0024.07,34.68,0023.48,34.74,0034.46,
35.10,0024.35,35.17,0023.79,35.24,0037.73,35.30,0023.79,35.37,0023.86,35.44,0024.29,35.51,0023.85,35.58,0023.49,35.64,0034.49,
36.00,0024.35,36.07,0023.92,36.14,0037.75,36.20,0024.04,36.27,0024.07,36.34,0024.34,36.41,0024.14,36.48,0023.81,36.54,0034.55,
36.90,0024.35,36.97,0024.13,37.04,0037.61,37.10,0024.20,37.17,0024.33,37.24,0024.37,37.31,0024.36,37.38,0023.90,37.44,0034.58,
37.80,0024.35,37.87,0024.13,37.94,0037.64,38.00,0024.24,38.07,0024.36,38.14,0024.41,38.21,0024.33,38.28,0023.88,38.34,0034.63,
38.70,0024.35,38.77,0024.19,38.84,0037.71,38.90,0024.28,38.97,0024.37,39.04,0024.45,39.11,0024.09,39.18,0023.62,39.24,0034.66,
39.60,0024.35,39.67,0024.12,39.74,0037.73,39.80,0024.23,39.87,0024.34,39.94,0024.43,40.01,0024.27,40.08,0023.87,40.14,0034.71,
40.50,0024.35,40.57,0024.16,40.64,0037.77,40.70,0024.28,40.77,0024.30,40.84,0024.37,40.91,0024.28,40.98,0023.85,41.04,0034.75,
41.40,0024.35,41.47,0024.34,41.54,0037.79,41.60,0024.35,41.67,0024.50,41.74,0024.36,41.81,0024.57,41.88,0024.16,41.94,0034.80,
42.30,0024.35,42.37,0024.49,42.44,0037.81,42.50,0024.53,42.57,0024.50,42.64,0024.35,42.71,0024.40,42.78,0023.90,42.84,0034.87,
43.20,0024.35,43.27,0024.39,43.34,0037.79,43.40,0024.41,43.47,0024.44,43.54,0024.34,43.61,0024.42,43.68,0023.94,43.74,0034.83,
44.10,0024.36,44.17,0024.59,44.24,0037.83,44.30,0024.43,44.37,0024.41,44.44,0024.22,44.51,0024.44,44.58,0024.01,44.64,0034.93,
45.00,0024.36,45.07,0024.39,45.14,0037.85,45.20,0024.48,45.27,0024.50,45.34,0024.37,45.41,0024.40,45.48,0024.02,45.54,0034.98,
45.90,0024.36,45.97,0024.18,46.04,0037.56,46.10,0024.65,46.17,0024.66,46.24,0024.38,46.31,0024.71,46.38,0024.16,46.44,0035.03,
46.80,0024.36,46.87,0024.34,46.94,0038.09,47.00,0024.46,47.07,0024.50,47.14,0024.38,47.21,0024.43,47.28,0024.05,47.34,0035.08,
47.70,0024.36,47.77,0024.45,47.84,0038.22,47.90,0024.44,47.97,0024.50,48.04,0024.36,48.11,0024.57,48.18,0024.14,48.24,0035.13,
48.60,0024.36,48.67,0024.39,48.74,0038.36,48.80,0024.54,48.87,0024.57,48.94,0024.37,49.01,0024.45,49.08,0024.00,49.14,0035.19,
49.50,0024.36,49.57,0024.39,49.64,0038.48,49.70,0024.37,49.77,0024.48,49.84,0024.40,49.91,0024.55,49.98,0024.08,50.04,0035.33,
50.40,0024.36,50.47,0024.44,50.54,0038.57,50.60,0024.46,50.67,0024.52,50.74,0024.40,50.81,0024.54,50.88,0024.10,50.94,0035.45,
51.30,0024.36,51.37,0024.36,51.44,0038.65,51.50,0024.40,51.57,0024.56,51.64,0024.41,51.71,0024.63,51.78,0024.21,51.84,0035.57,
52.20,0024.36,52.27,0024.45,52.34,0038.74,52.40,0024.48,52.47,0024.56,52.54,0024.43,52.61,0024.52,52.68,0024.13,52.74,0035.69,
53.10,0024.36,53.17,0024.54,53.24,0038.79,53.30,0024.59,53.37,0024.59,53.44,0024.44,53.51,0024.64,53.58,0024.20,53.64,0035.78,
54.00,0024.36,54.07,0024.42,54.14,0038.88,54.20,0024.43,54.27,0024.53,54.34,0024.44,54.41,0024.59,54.48,0024.16,54.54,0035.87,
54.90,0024.36,54.97,0024.57,55.04,0038.97,55.10,0024.51,55.17,0024.65,55.24,0024.43,55.31,0024.74,55.38,0024.26,55.44,0035.95,
55.80,0024.36,55.87,0024.51,55.94,0039.05,56.00,0024.58,56.07,0024.68,56.14,0024.41,56.21,0024.64,56.28,0024.20,56.34,0036.01,
56.70,0024.36,56.77,0024.40,56.84,0039.13,56.90,0024.43,56.97,0024.45,57.04,0024.41,57.11,0024.66,57.18,0024.22,57.24,0036.06,
57.60,0024.36,57.67,0024.33,57.74,0039.16,57.80,0024.22,57.87,0024.24,57.94,0024.39,58.01,0024.24,58.08,0023.74,58.14,0036.10,
58.50,0024.37,58.57,0024.17,58.64,0039.18,58.70,0024.16,58.77,0024.25,58.84,0024.40,58.91,0024.27,58.98,0023.88,59.04,0036.15,
59.40,0024.37,59.47,0024.23,59.54,0039.21,59.60,0024.35,59.67,0024.44,59.74,0024.40,59.81,0024.49,59.88,0023.99,59.94,0036.20,
60.30,0024.37,60.37,0024.19,60.44,0039.23,60.50,0024.10,60.57,0024.13,60.64,0024.39,60.71,0024.17,60.78,0023.80,60.84,0036.23,
